…
    #> Warning: Removed 2 rows containing missing values (geom_point).
    
    #> Warning: Removed 2 rows containing missing values (geom_point).
    
    #> Warning: Removed 2 rows containing missing values (geom_point).

<img src="man/figures/README-example-13.png" width="100%" /><img src="man/figures/README-example-14.png" width="100%" />

    #> $hist
    #> $hist$data
    #> # A tibble: 344 x 5
    #>    bill_length_mm bill_depth_mm flipper_length_mm body_mass_g  year
    #>             <dbl>         <dbl>             <int>       <int> <int>
    #>  1           39.1          18.7               181        3750  2007
    #>  2           39.5          17.4               186        3800  2007
    #>  3           40.3          18                 195        3250  2007
    #>  4           NA            NA                  NA          NA  2007
    #>  5           36.7          19.3               193        3450  2007
    #>  6           39.3          20.6               190        3650  2007
    #>  7           38.9          17.8               181        3625  2007
    #>  8           39.2          19.6               195        4675  2007
    #>  9           34.1          18.1               193        3475  2007
    #> 10           42            20.2               190        4250  2007
    #> # … with 334 more rows
…
    #> $hist$labels$title
    #> [1] "Histogram for column: bill_length_mm"
    #> 
    #> $hist$labels$x
    #> [1] "bill_length_mm"
    #> 
    #> $hist$labels$y
    #> [1] "count"
    #> 
    #> $hist$labels$weight
    #> [1] "weight"
    #> 
    #> 
    #> $hist$data
    #> # A tibble: 344 x 5
    #>    bill_length_mm bill_depth_mm flipper_length_mm body_mass_g  year
    #>             <dbl>         <dbl>             <int>       <int> <int>
    #>  1           39.1          18.7               181        3750  2007
    #>  2           39.5          17.4               186        3800  2007
    #>  3           40.3          18                 195        3250  2007
    #>  4           NA            NA                  NA          NA  2007
    #>  5           36.7          19.3               193        3450  2007
    #>  6           39.3          20.6               190        3650  2007
    #>  7           38.9          17.8               181        3625  2007
    #>  8           39.2          19.6               195        4675  2007
    #>  9           34.1          18.1               193        3475  2007
    #> 10           42            20.2               190        4250  2007
    #> # … with 334 more rows
…
    #> $hist$labels$title
    #> [1] "Histogram for column: bill_depth_mm"
    #> 
    #> $hist$labels$x
    #> [1] "bill_depth_mm"
    #> 
    #> $hist$labels$y
    #> [1] "count"
    #> 
    #> $hist$labels$weight
    #> [1] "weight"
    #> 
    #> 
    #> $hist$data
    #> # A tibble: 344 x 5
    #>    bill_length_mm bill_depth_mm flipper_length_mm body_mass_g  year
    #>             <dbl>         <dbl>             <int>       <int> <int>
    #>  1           39.1          18.7               181        3750  2007
    #>  2           39.5          17.4               186        3800  2007
    #>  3           40.3          18                 195        3250  2007
    #>  4           NA            NA                  NA          NA  2007
    #>  5           36.7          19.3               193        3450  2007
    #>  6           39.3          20.6               190        3650  2007
    #>  7           38.9          17.8               181        3625  2007
    #>  8           39.2          19.6               195        4675  2007
    #>  9           34.1          18.1               193        3475  2007
    #> 10           42            20.2               190        4250  2007
    #> # … with 334 more rows
…
    #> $hist$labels$title
    #> [1] "Histogram for column: flipper_length_mm"
    #> 
    #> $hist$labels$x
    #> [1] "flipper_length_mm"
    #> 
    #> $hist$labels$y
    #> [1] "count"
    #> 
    #> $hist$labels$weight
    #> [1] "weight"
    #> 
    #> 
    #> $hist$data
    #> # A tibble: 344 x 5
    #>    bill_length_mm bill_depth_mm flipper_length_mm body_mass_g  year
    #>             <dbl>         <dbl>             <int>       <int> <int>
    #>  1           39.1          18.7               181        3750  2007
    #>  2           39.5          17.4               186        3800  2007
    #>  3           40.3          18                 195        3250  2007
    #>  4           NA            NA                  NA          NA  2007
    #>  5           36.7          19.3               193        3450  2007
    #>  6           39.3          20.6               190        3650  2007
    #>  7           38.9          17.8               181        3625  2007
    #>  8           39.2          19.6               195        4675  2007
    #>  9           34.1          18.1               193        3475  2007
    #> 10           42            20.2               190        4250  2007
    #> # … with 334 more rows
…
    #> $hist$labels$title
    #> [1] "Histogram for column: body_mass_g"
    #> 
    #> $hist$labels$x
    #> [1] "body_mass_g"
    #> 
    #> $hist$labels$y
    #> [1] "count"
    #> 
    #> $hist$labels$weight
    #> [1] "weight"
    #> 
    #> 
    #> $hist$data
    #> # A tibble: 344 x 5
    #>    bill_length_mm bill_depth_mm flipper_length_mm body_mass_g  year
    #>             <dbl>         <dbl>             <int>       <int> <int>
    #>  1           39.1          18.7               181        3750  2007
    #>  2           39.5          17.4               186        3800  2007
    #>  3           40.3          18                 195        3250  2007
    #>  4           NA            NA                  NA          NA  2007
    #>  5           36.7          19.3               193        3450  2007
    #>  6           39.3          20.6               190        3650  2007
    #>  7           38.9          17.8               181        3625  2007
    #>  8           39.2          19.6               195        4675  2007
    #>  9           34.1          18.1               193        3475  2007
    #> 10           42            20.2               190        4250  2007
    #> # … with 334 more rows
…
